<svg width="2" height="32" viewBox="0 0 2 32" fill="none" xmlns="http://www.w3.org/2000/svg">
<path d="M1.00001 31.2739C0.924073 31.2745 0.848775 31.26 0.778502 31.2312C0.708229 31.2024 0.644384 31.16 0.590689 31.1063C0.536994 31.0526 0.494523 30.9887 0.465748 30.9184C0.436972 30.8482 0.422469 30.7729 0.423084 30.6969V0.798481C0.423084 0.645471 0.483868 0.498728 0.592062 0.390534C0.700256 0.28234 0.846997 0.221558 1.00001 0.221558C1.15302 0.221558 1.29976 0.28234 1.40795 0.390534C1.51615 0.498728 1.57693 0.645471 1.57693 0.798481V30.6969C1.57754 30.7729 1.56304 30.8482 1.53427 30.9184C1.50549 30.9887 1.46302 31.0526 1.40932 31.1063C1.35563 31.16 1.29178 31.2024 1.22151 31.2312C1.15124 31.26 1.07594 31.2745 1.00001 31.2739V31.2739Z" fill="black"/>
</svg>
