<svg width="8" height="10" viewBox="0 0 8 10" fill="none" xmlns="http://www.w3.org/2000/svg">
<path d="M3.55541 9.472C4.47941 9.472 5.28341 8.92 5.61941 8.296V9.352H7.07141V0.171997H5.61941V4.036C5.27141 3.412 4.63541 2.944 3.61541 2.944C1.98341 2.944 0.79541 4.216 0.79541 6.22V6.316C0.79541 8.356 1.98341 9.472 3.55541 9.472ZM3.91541 8.32C2.97941 8.32 2.28341 7.66 2.28341 6.28V6.184C2.28341 4.828 2.90741 4.084 3.97541 4.084C5.03141 4.084 5.66741 4.768 5.66741 6.148V6.244C5.66741 7.648 4.92341 8.32 3.91541 8.32Z" fill="#333333"/>
</svg>
