<svg width="7" height="8" viewBox="0 0 7 8" fill="none" xmlns="http://www.w3.org/2000/svg">
<path d="M0.875366 7.35197H2.32737V3.65597C2.32737 2.65997 2.98737 2.15597 3.80337 2.15597C4.66737 2.15597 5.05137 2.58797 5.05137 3.53597V7.35197H6.50337V3.40397C6.50337 1.67597 5.61537 0.94397 4.35537 0.94397C3.32337 0.94397 2.62737 1.45997 2.32737 2.07197V1.07597H0.875366V7.35197V7.35197Z" fill="#333333"/>
</svg>
