<svg width="12" height="10" viewBox="0 0 12 10" fill="none" xmlns="http://www.w3.org/2000/svg">
<path d="M2.61952 9.35197H4.14352L5.88352 3.09997L7.57552 9.35197H9.17152L11.3195 0.771973H9.83152L8.29552 7.10797L6.59152 0.771973H5.27152L3.60352 7.07197L2.11552 0.771973H0.483521L2.61952 9.35197V9.35197Z" fill="#333333"/>
</svg>
