<svg width="9" height="11" viewBox="0 0 9 11" fill="none" xmlns="http://www.w3.org/2000/svg">
<path d="M1.41228 0.916V10.996H0.182487V0.916H1.41228ZM0.863481 10.996V9.772H3.21491C3.74598 9.77789 4.27379 9.68847 4.77319 9.508C5.22245 9.3392 5.63168 9.07904 5.97494 8.744C6.31756 8.40459 6.58265 7.99525 6.75208 7.544C7.12057 6.52005 7.12057 5.39995 6.75208 4.376C6.5822 3.92499 6.31716 3.51573 5.97494 3.176C5.63279 2.83957 5.22324 2.5792 4.77319 2.412C4.27404 2.23017 3.74622 2.1394 3.21491 2.144H0.859476V0.920004H3.21091C4.12038 0.901055 5.01913 1.11887 5.81872 1.552C6.56893 1.96138 7.18926 2.57248 7.60933 3.316C8.0358 4.13155 8.25852 5.03796 8.25852 5.958C8.25852 6.87804 8.0358 7.78445 7.60933 8.6C7.18705 9.34184 6.56727 9.95241 5.81872 10.364C5.01913 10.7971 4.12038 11.015 3.21091 10.996H0.863481Z" fill="black"/>
</svg>
