<svg width="22" height="18" viewBox="0 0 22 18" fill="none" xmlns="http://www.w3.org/2000/svg">
<path d="M14.9336 15.2344C16.832 14.8477 18.6953 14.3555 20.541 13.7754C18.2207 9.46875 15.2676 5.54883 11.752 2.15625C6.6543 4.89844 2.78711 9.76757 1.53906 15.5859C5.2832 16.3594 9.90625 16.2539 14.9336 15.2344Z" stroke="black" stroke-width="2" stroke-miterlimit="10"/>
</svg>
